Gov 50 Final Project
…
# A tibble: 2 × 2
  `Voting age population` general_election
  <chr>                   <chr>           
1 24,650,080              ge15            
2 19,794,567              ge14            

malaysia_gdp <- malaysia_gdp |> 
  filter(series == 'growth_yoy', 
         date >= 2010-01-01)
malaysia_gdp

# A tibble: 48 × 6
   series     date         gdp   gni gdp_capita gni_capita
   <chr>      <date>     <dbl> <dbl>      <dbl>      <dbl>
 1 growth_yoy 1976-01-01 25.8  24.9       22.9       22.0 
 2 growth_yoy 1977-01-01 15.2  15.1       12.4       12.3 
 3 growth_yoy 1978-01-01 17.1  16.5       14.5       13.8 
 4 growth_yoy 1979-01-01 22.5  22.6       19.7       19.7 
 5 growth_yoy 1980-01-01 14.8  15.9       11.9       12.9 
 6 growth_yoy 1981-01-01  8.08  8.20       5.21       5.32
 7 growth_yoy 1982-01-01  8.65  7.39       5.74       4.49
 8 growth_yoy 1983-01-01 12.5  10.6        9.55       7.68
 9 growth_yoy 1984-01-01 12.9  12.3       10.0        9.41
10 growth_yoy 1985-01-01 -2.62 -2.99      -5.26      -5.62
# ℹ 38 more rows
…
